{
    "useragent_category_mobile": {
        "message": "ජංගම",
        "description": "Default category label for browsers on mobile devices"
    },
    "options_entries_heading_enabled": {
        "message": "සබල කර ඇත",
        "description": "Options page table editor heading for the column allowing to enabled or disable items"
    }
}
