{
    "extension_description": {
        "message": "Înlocuiește șirul pentru Agent-Utilizator al navigatorului"
    },
    "options_entries_caption": {
        "message": "Înregistrări pentru Agent-Utilizator"
    },
    "popup_item_options": {
        "message": "Preferințe…"
    },
    "icon_title_enabled": {
        "message": "acum funcționează"
    },
    "icon_title_disabled": {
        "message": "acum nu funcționează"
    },
    "option_badge_text": {
        "message": "Afișează Agent-Utilizator ca text pe iconiță?",
        "description": "Text of checkbox option to show/hide the two to four letter abbreviations displayed ontop of the browser action icon"
    },
    "option_popup_override_size": {
        "message": "Forțează dimensiune implicită pentru popup/meniu",
        "description": "Text of checkbox option to force the extension popup to a static/larger size than it would normally be according to the browser defaults (note that this also has a description attached)"
    },
    "popup_item_default": {
        "message": "Implicit",
        "description": "The label of the menu item that disables the User-Agent overrider and lets the browser send its default User-Agent string"
    },
    "option_popup_override_size_description": {
        "message": "Activează dacă popup-ul este afișat prea mic pe dispozitivul tău",
        "description": "Description text of checkbox option to force the extension popup to a static/larger size than it would normally be according to the browser defaults"
    },
    "option_random_jitter": {
        "message": "Variație mod aleatoriu",
        "description": "Text of numeric option (0-100) for setting by how many per-cent the random-interval value should (on avarage) be varied"
    },
    "options_entries_reset": {
        "message": "Resetează la valori implicite",
        "description": "Options page link for loading the entries defaults"
    },
    "options_entries_reset_undo_text": {
        "message": "Valori implicite restaurate",
        "description": "Text of popup that is shown after the reset link has been clicked"
    },
    "options_entries_reset_undo_button": {
        "message": "Anulează resetare",
        "description": "Label of button for undoing a reset (displayed below the text that asserts that the options have just been reset)"
    },
    "options_entries_switch_text": {
        "message": "Schimbă în Modul Text",
        "description": "Options page link for switching from table to text mode"
    },
    "options_entries_switch_table": {
        "message": "Schimbă în Modul Tabel",
        "description": "Options page link for switching from text to table mode"
    },
    "options_entries_heading_enabled": {
        "message": "Pornit",
        "description": "Options page table editor heading for the column allowing to enabled or disable items"
    },
    "options_entries_heading_label": {
        "message": "Etichetă",
        "description": "Options page table editor heading for the column with user-facing User-Agent-String labels"
    },
    "options_entries_heading_category": {
        "message": "Categorie",
        "description": "Options page table editor heading for the column with general category of the given User-Agent-String"
    },
    "options_entries_heading_string": {
        "message": "Șir",
        "description": "Options page table editor heading for the column with the actual server-reported User-Agent-Strings"
    },
    "useragent_category_mobile": {
        "message": "Mobil",
        "description": "Default category label for browsers on mobile devices"
    },
    "popup_item_random": {
        "message": "Pornește Mod Aleatoriu",
        "description": "The label of the menu item for enabling time-based User-Agent randomization"
    },
    "popup_item_random_interval_mode_restart": {
        "message": "Doar la pornire",
        "description": "The label of the menu item for enabling the time-based User-Agent randomization only on extension and browser startup"
    },
    "useragent_category_bot": {
        "message": "Bot",
        "description": "Default category label for search engine bots"
    },
    "icon_title_random": {
        "message": "Mod Aleatoriu",
        "description": "Text displayed in the browser action icon tooltip when the User-Agent header is choosen at random"
    },
    "icon_title_override_enabled": {
        "message": "Activat prin Suprascriere",
        "description": "Text displayed in the browser action icon tooltip when request processing is being done because of an override being set"
    },
    "useragent_category_other": {
        "message": "Altele",
        "description": "Default category label for unclassified client software"
    },
    "popup_item_random_categories": {
        "message": "Categorii:",
        "description": "The section header of the categories selection of random selection mode"
    },
    "icon_title_override_disabled": {
        "message": "Dezactivat prin Suprascriere",
        "description": "Text displayed in the browser action icon tooltip when no request processing is being done because of an override being set"
    },
    "popup_item_override": {
        "message": "Suprascriere pentru Domeniu",
        "description": "Label of the checkbox that can be used to switch from setting the global User-Agent string to a per-site value"
    },
    "popup_item_random_interval_mode_timed": {
        "message": "La fiecare:",
        "description": "The label of the menu item for enabling the time-based User-Agent randomization at regular intervals"
    },
    "popup_item_random_interval_unit_hours": {
        "message": "Ora(ore)",
        "description": "A User-Agent randomization time interval"
    },
    "popup_item_random_interval_unit_minutes": {
        "message": "Minut(e)",
        "description": "A User-Agent randomization time interval"
    },
    "popup_item_override_tpl": {
        "message": "“$HOSTNAME$”",
        "description": "Label of an individual selectable override domain",
        "placeholders": {
            "hostname": {
                "content": "$1",
                "example": "https://www.example.net"
            }
        }
    },
    "popup_item_random_interval_unit_days": {
        "message": "Zi(le)",
        "description": "A User-Agent randomization time interval"
    },
    "useragent_category_desktop": {
        "message": "Birou",
        "description": "Default category label for browsers on desktop devices"
    }
}
